[
  {
    "success": {
      "fields": {
        "Success 200": [
          {
            "group": "Success 200",
            "optional": false,
            "field": "varname1",
            "description": "<p>No type.</p>"
          },
          {
            "group": "Success 200",
            "type": "String",
            "optional": false,
            "field": "varname2",
            "description": "<p>With type.</p>"
          }
        ]
      }
    },
    "type": "",
    "url": "",
    "version": "0.0.0",
    "filename": "./apidoc/main.js",
    "group": "C__Users_Andreas_Wagner_Desktop_Projektmanagement2_helloworld_Andreas_Wagner__bung_5_CS_server_apidoc_main_js",
    "groupTitle": "C__Users_Andreas_Wagner_Desktop_Projektmanagement2_helloworld_Andreas_Wagner__bung_5_CS_server_apidoc_main_js",
    "name": ""
  },
  {
    "type": "post",
    "url": "/user",
    "title": "Create new user",
    "version": "1.0.0",
    "name": "CreateUser",
    "group": "User",
    "description": "<p>This route creates a new user with provided parameters and returns <br /></p> <ul> <li>a message with the attributes of the newly created user</li> <li>a userList containing all users</li> <li>a user-Object with all attributes of the created user<br/><br/></li> </ul>",
    "examples": [
      {
        "title": "Usage Example",
        "content": "http://localhost:8080/user",
        "type": "url"
      }
    ],
    "parameter": {
      "fields": {
        "Parameter": [
          {
            "group": "Parameter",
            "type": "string",
            "optional": false,
            "field": "vorname",
            "description": "<p>surname of the user</p>"
          },
          {
            "group": "Parameter",
            "type": "string",
            "optional": false,
            "field": "nachname",
            "description": "<p>lastname of the user</p>"
          },
          {
            "group": "Parameter",
            "type": "string",
            "optional": false,
            "field": "username",
            "description": "<p>username of the user</p>"
          },
          {
            "group": "Parameter",
            "type": "string",
            "optional": false,
            "field": "passswort",
            "description": "<p>password of the user</p>"
          }
        ]
      },
      "examples": [
        {
          "title": "Parameters Example",
          "content": "vorname=Max&nachname=Mustermann&username=User1&passwort=geheim",
          "type": "json"
        }
      ]
    },
    "success": {
      "fields": {
        "Success 201": [
          {
            "group": "Success 201",
            "type": "string",
            "optional": false,
            "field": "message",
            "description": "<p>attributes of newly created user</p>"
          },
          {
            "group": "Success 201",
            "type": "json[]",
            "optional": false,
            "field": "userList",
            "description": "<p>List of users: [{&quot;vorname&quot;:string, &quot;nachname&quot;:string, ...}, ...]</p>"
          },
          {
            "group": "Success 201",
            "type": "Object",
            "optional": false,
            "field": "user",
            "description": "<p>that have been created: {&quot;vorname&quot;:string, &quot;nachname&quot;:string, ...}</p>"
          }
        ]
      },
      "examples": [
        {
          "title": "201 (Created) Example",
          "content": "HTTP/1.1 201 Created\n{ \"message\"  : \"Sabine Musterfrau successfully added\",\n  \"userList\" : [ {\"vorname\":\"Max\",   \"nachname\":\"Mustermann\", \"username\":\"User1\", \"passwort\"=\"passwort\" ,\"time\":\"23.02.2017 15:27:00\"},\n                 {\"vorname\":\"Sabine\",\"nachname\":\"Musterfrau\", \"username\":\"User2\", \"passwort\"=\"geheim\" \"time\":\"23.02.2017 15:28:00\"} ], }",
          "type": "json"
        }
      ]
    },
    "filename": "./src/serverCS.ts",
    "groupTitle": "User",
    "error": {
      "fields": {
        "Error 400": [
          {
            "group": "Error 400",
            "type": "string",
            "optional": false,
            "field": "message",
            "description": "<p>description of the error</p>"
          },
          {
            "group": "Error 400",
            "type": "json[]",
            "optional": false,
            "field": "userList",
            "description": "<p>List of users: [{&quot;vorname&quot;:string, &quot;nachname&quot;:string}, ...]</p>"
          }
        ]
      },
      "examples": [
        {
          "title": "400 (Bad Request) Parameter not provided",
          "content": "HTTP/1.1 400 Bad Request\n{\n  \"message\"  : \"vorname or nachname not provided\",\n  \"userList\" : [\n    {\"vorname\":\"Max\",   \"nachname\":\"Mustermann\"},\n  ]\n}",
          "type": "json"
        },
        {
          "title": "400 (Bad Request) wrong Parameter format",
          "content": "HTTP/1.1 400 Bad Request\n{\n  \"message\"  : \"Id 'Hans' not a number\",\n  \"userList\" : [\n    {\"vorname\":\"Max\",   \"nachname\":\"Mustermann\"},\n  ]\n}",
          "type": "json"
        },
        {
          "title": "400 (Bad Request) ID not provided",
          "content": "HTTP/1.1 400 Bad Request\n{\n  \"message\"  : \"Parameter ID not provided\",\n  \"userList\" : [\n    {\"id\":0, \"vorname\":\"Max\", \"nachname\":\"Mustermann\"},\n  ]\n}",
          "type": "json"
        }
      ]
    }
  },
  {
    "type": "post",
    "url": "/user",
    "title": "Create new user",
    "version": "1.0.0",
    "name": "CreateUser",
    "group": "User",
    "description": "<p>This route creates a new user with provided parameters and returns <br /></p> <ul> <li>a message with the attributes of the newly created user</li> <li>a userList containing all users</li> <li>a user-Object with all attributes of the created user<br/><br/></li> </ul>",
    "examples": [
      {
        "title": "Usage Example",
        "content": "http://localhost:8080/user",
        "type": "url"
      }
    ],
    "parameter": {
      "fields": {
        "Parameter": [
          {
            "group": "Parameter",
            "type": "string",
            "optional": false,
            "field": "vorname",
            "description": "<p>surname of the user</p>"
          },
          {
            "group": "Parameter",
            "type": "string",
            "optional": false,
            "field": "nachname",
            "description": "<p>lastname of the user</p>"
          },
          {
            "group": "Parameter",
            "type": "string",
            "optional": false,
            "field": "username",
            "description": "<p>username of the user</p>"
          },
          {
            "group": "Parameter",
            "type": "string",
            "optional": false,
            "field": "passswort",
            "description": "<p>password of the user</p>"
          }
        ]
      },
      "examples": [
        {
          "title": "Parameters Example",
          "content": "vorname=Max&nachname=Mustermann&username=User1&passwort=geheim",
          "type": "json"
        }
      ]
    },
    "success": {
      "fields": {
        "Success 201": [
          {
            "group": "Success 201",
            "type": "string",
            "optional": false,
            "field": "message",
            "description": "<p>attributes of newly created user</p>"
          },
          {
            "group": "Success 201",
            "type": "json[]",
            "optional": false,
            "field": "userList",
            "description": "<p>List of users: [{&quot;vorname&quot;:string, &quot;nachname&quot;:string, ...}, ...]</p>"
          },
          {
            "group": "Success 201",
            "type": "Object",
            "optional": false,
            "field": "user",
            "description": "<p>that have been created: {&quot;vorname&quot;:string, &quot;nachname&quot;:string, ...}</p>"
          }
        ]
      },
      "examples": [
        {
          "title": "201 (Created) Example",
          "content": "HTTP/1.1 201 Created\n{ \"message\"  : \"Sabine Musterfrau successfully added\",\n  \"userList\" : [ {\"vorname\":\"Max\",   \"nachname\":\"Mustermann\", \"username\":\"User1\", \"passwort\"=\"passwort\" ,\"time\":\"23.02.2017 15:27:00\"},\n                 {\"vorname\":\"Sabine\",\"nachname\":\"Musterfrau\", \"username\":\"User2\", \"passwort\"=\"geheim\" \"time\":\"23.02.2017 15:28:00\"} ], }",
          "type": "json"
        }
      ]
    },
    "filename": "./src/serverCS.js",
    "groupTitle": "User",
    "error": {
      "fields": {
        "Error 400": [
          {
            "group": "Error 400",
            "type": "string",
            "optional": false,
            "field": "message",
            "description": "<p>description of the error</p>"
          },
          {
            "group": "Error 400",
            "type": "json[]",
            "optional": false,
            "field": "userList",
            "description": "<p>List of users: [{&quot;vorname&quot;:string, &quot;nachname&quot;:string}, ...]</p>"
          }
        ]
      },
      "examples": [
        {
          "title": "400 (Bad Request) Parameter not provided",
          "content": "HTTP/1.1 400 Bad Request\n{\n  \"message\"  : \"vorname or nachname not provided\",\n  \"userList\" : [\n    {\"vorname\":\"Max\",   \"nachname\":\"Mustermann\"},\n  ]\n}",
          "type": "json"
        },
        {
          "title": "400 (Bad Request) wrong Parameter format",
          "content": "HTTP/1.1 400 Bad Request\n{\n  \"message\"  : \"Id 'Hans' not a number\",\n  \"userList\" : [\n    {\"vorname\":\"Max\",   \"nachname\":\"Mustermann\"},\n  ]\n}",
          "type": "json"
        },
        {
          "title": "400 (Bad Request) ID not provided",
          "content": "HTTP/1.1 400 Bad Request\n{\n  \"message\"  : \"Parameter ID not provided\",\n  \"userList\" : [\n    {\"id\":0, \"vorname\":\"Max\", \"nachname\":\"Mustermann\"},\n  ]\n}",
          "type": "json"
        }
      ]
    }
  },
  {
    "type": "delete",
    "url": "/user/:id",
    "title": "Delete user",
    "version": "1.0.0",
    "name": "DeleteUser",
    "group": "User",
    "description": "<p>This route deletes a user with provided <code>id</code> and returns <br /></p> <ul> <li>a message with the attributes of user with id <code>id</code><br /></li> <li>a userList containing all users<br/><br/></li> </ul>",
    "examples": [
      {
        "title": "Usage Example",
        "content": "http://localhost:8080/user/0",
        "type": "url"
      }
    ],
    "parameter": {
      "fields": {
        "Parameter": [
          {
            "group": "Parameter",
            "type": "number",
            "optional": false,
            "field": ":id",
            "description": "<p>URL-parameter: <code>id</code> of the user to be deleted</p>"
          }
        ]
      }
    },
    "success": {
      "fields": {
        "Success 200": [
          {
            "group": "Success 200",
            "type": "string",
            "optional": false,
            "field": "message",
            "description": "<p>attributes of user with id <code>id</code></p>"
          },
          {
            "group": "Success 200",
            "type": "json[]",
            "optional": false,
            "field": "userList",
            "description": "<p>List of users: [{&quot;username&quot;:string, &quot;passwort&quot;:string, &quot;vorname&quot;:string, &quot;nachname&quot;:string}, ...]</p>"
          }
        ]
      },
      "examples": [
        {
          "title": "200 (ok) Example",
          "content": "HTTP/1.1 200 ok\n{ \"message\"  : \"Max Mustermann has been deleted\",\n  \"userList\" : [ {\"username\":\"user2\", \"passwort\":\"geheim\",\"vorname\":\"Sabine\",\"nachname\":\"Musterfrau\"} ] }",
          "type": "json"
        }
      ]
    },
    "filename": "./src/serverCS.js",
    "groupTitle": "User",
    "error": {
      "fields": {
        "Error 400": [
          {
            "group": "Error 400",
            "type": "string",
            "optional": false,
            "field": "message",
            "description": "<p>description of the error</p>"
          },
          {
            "group": "Error 400",
            "type": "json[]",
            "optional": false,
            "field": "userList",
            "description": "<p>List of users: [{&quot;vorname&quot;:string, &quot;nachname&quot;:string}, ...]</p>"
          }
        ],
        "Error 404": [
          {
            "group": "Error 404",
            "type": "string",
            "optional": false,
            "field": "message",
            "description": "<p>description of the error</p>"
          },
          {
            "group": "Error 404",
            "type": "json[]",
            "optional": false,
            "field": "userList",
            "description": "<p>List of users: [{&quot;vorname&quot;:string, &quot;nachname&quot;:string}, ...]</p>"
          }
        ],
        "Error 410": [
          {
            "group": "Error 410",
            "type": "string",
            "optional": false,
            "field": "message",
            "description": "<p>description of the error</p>"
          },
          {
            "group": "Error 410",
            "type": "object[]",
            "optional": false,
            "field": "userList",
            "description": "<p>List of users: [{&quot;vorname&quot;:string, &quot;nachname&quot;:string}, ...]</p>"
          }
        ]
      },
      "examples": [
        {
          "title": "400 (Bad Request) Parameter not provided",
          "content": "HTTP/1.1 400 Bad Request\n{\n  \"message\"  : \"vorname or nachname not provided\",\n  \"userList\" : [\n    {\"vorname\":\"Max\",   \"nachname\":\"Mustermann\"},\n  ]\n}",
          "type": "json"
        },
        {
          "title": "400 (Bad Request) wrong Parameter format",
          "content": "HTTP/1.1 400 Bad Request\n{\n  \"message\"  : \"Id 'Hans' not a number\",\n  \"userList\" : [\n    {\"vorname\":\"Max\",   \"nachname\":\"Mustermann\"},\n  ]\n}",
          "type": "json"
        },
        {
          "title": "400 (Bad Request) ID not provided",
          "content": "HTTP/1.1 400 Bad Request\n{\n  \"message\"  : \"Parameter ID not provided\",\n  \"userList\" : [\n    {\"id\":0, \"vorname\":\"Max\", \"nachname\":\"Mustermann\"},\n  ]\n}",
          "type": "json"
        },
        {
          "title": "404 (Not Found) Example",
          "content": "HTTP/1.1 404 Not Found\n{\n  \"message\"  : \"Id 42 out of index range\",\n  \"userList\" : [\n    {\"vorname\":\"Max\",   \"nachname\":\"Mustermann\"},\n    {\"vorname\":\"Sabine\",\"nachname\":\"Musterfrau\"}\n  ]\n}",
          "type": "json"
        },
        {
          "title": "410 (Gone) Example",
          "content": "HTTP/1.1 410 Gone\n{\n  \"message\"  : \"User with id 2 already deleted\",\n  \"userList\" : [\n    {\"vorname\":\"Max\",   \"nachname\":\"Mustermann\"},\n    {\"vorname\":\"Sabine\",\"nachname\":\"Musterfrau\"}\n  ]\n}",
          "type": "json"
        }
      ]
    }
  },
  {
    "type": "delete",
    "url": "/user/:id",
    "title": "Delete user",
    "version": "1.0.0",
    "name": "DeleteUser",
    "group": "User",
    "description": "<p>This route deletes a user with provided <code>id</code> and returns <br /></p> <ul> <li>a message with the attributes of user with id <code>id</code><br /></li> <li>a userList containing all users<br/><br/></li> </ul>",
    "examples": [
      {
        "title": "Usage Example",
        "content": "http://localhost:8080/user/0",
        "type": "url"
      }
    ],
    "parameter": {
      "fields": {
        "Parameter": [
          {
            "group": "Parameter",
            "type": "number",
            "optional": false,
            "field": ":id",
            "description": "<p>URL-parameter: <code>id</code> of the user to be deleted</p>"
          }
        ]
      }
    },
    "success": {
      "fields": {
        "Success 200": [
          {
            "group": "Success 200",
            "type": "string",
            "optional": false,
            "field": "message",
            "description": "<p>attributes of user with id <code>id</code></p>"
          },
          {
            "group": "Success 200",
            "type": "json[]",
            "optional": false,
            "field": "userList",
            "description": "<p>List of users: [{&quot;username&quot;:string, &quot;passwort&quot;:string, &quot;vorname&quot;:string, &quot;nachname&quot;:string}, ...]</p>"
          }
        ]
      },
      "examples": [
        {
          "title": "200 (ok) Example",
          "content": "HTTP/1.1 200 ok\n{ \"message\"  : \"Max Mustermann has been deleted\",\n  \"userList\" : [ {\"username\":\"user2\", \"passwort\":\"geheim\",\"vorname\":\"Sabine\",\"nachname\":\"Musterfrau\"} ] }",
          "type": "json"
        }
      ]
    },
    "filename": "./src/serverCS.ts",
    "groupTitle": "User",
    "error": {
      "fields": {
        "Error 400": [
          {
            "group": "Error 400",
            "type": "string",
            "optional": false,
            "field": "message",
            "description": "<p>description of the error</p>"
          },
          {
            "group": "Error 400",
            "type": "json[]",
            "optional": false,
            "field": "userList",
            "description": "<p>List of users: [{&quot;vorname&quot;:string, &quot;nachname&quot;:string}, ...]</p>"
          }
        ],
        "Error 404": [
          {
            "group": "Error 404",
            "type": "string",
            "optional": false,
            "field": "message",
            "description": "<p>description of the error</p>"
          },
          {
            "group": "Error 404",
            "type": "json[]",
            "optional": false,
            "field": "userList",
            "description": "<p>List of users: [{&quot;vorname&quot;:string, &quot;nachname&quot;:string}, ...]</p>"
          }
        ],
        "Error 410": [
          {
            "group": "Error 410",
            "type": "string",
            "optional": false,
            "field": "message",
            "description": "<p>description of the error</p>"
          },
          {
            "group": "Error 410",
            "type": "object[]",
            "optional": false,
            "field": "userList",
            "description": "<p>List of users: [{&quot;vorname&quot;:string, &quot;nachname&quot;:string}, ...]</p>"
          }
        ]
      },
      "examples": [
        {
          "title": "400 (Bad Request) Parameter not provided",
          "content": "HTTP/1.1 400 Bad Request\n{\n  \"message\"  : \"vorname or nachname not provided\",\n  \"userList\" : [\n    {\"vorname\":\"Max\",   \"nachname\":\"Mustermann\"},\n  ]\n}",
          "type": "json"
        },
        {
          "title": "400 (Bad Request) wrong Parameter format",
          "content": "HTTP/1.1 400 Bad Request\n{\n  \"message\"  : \"Id 'Hans' not a number\",\n  \"userList\" : [\n    {\"vorname\":\"Max\",   \"nachname\":\"Mustermann\"},\n  ]\n}",
          "type": "json"
        },
        {
          "title": "400 (Bad Request) ID not provided",
          "content": "HTTP/1.1 400 Bad Request\n{\n  \"message\"  : \"Parameter ID not provided\",\n  \"userList\" : [\n    {\"id\":0, \"vorname\":\"Max\", \"nachname\":\"Mustermann\"},\n  ]\n}",
          "type": "json"
        },
        {
          "title": "404 (Not Found) Example",
          "content": "HTTP/1.1 404 Not Found\n{\n  \"message\"  : \"Id 42 out of index range\",\n  \"userList\" : [\n    {\"vorname\":\"Max\",   \"nachname\":\"Mustermann\"},\n    {\"vorname\":\"Sabine\",\"nachname\":\"Musterfrau\"}\n  ]\n}",
          "type": "json"
        },
        {
          "title": "410 (Gone) Example",
          "content": "HTTP/1.1 410 Gone\n{\n  \"message\"  : \"User with id 2 already deleted\",\n  \"userList\" : [\n    {\"vorname\":\"Max\",   \"nachname\":\"Mustermann\"},\n    {\"vorname\":\"Sabine\",\"nachname\":\"Musterfrau\"}\n  ]\n}",
          "type": "json"
        }
      ]
    }
  },
  {
    "type": "get",
    "url": "/user/:id",
    "title": "Read user information",
    "version": "1.0.0",
    "name": "ReadUser",
    "group": "User",
    "parameter": {
      "fields": {
        "Parameter": [
          {
            "group": "Parameter",
            "type": "number",
            "optional": false,
            "field": ":id",
            "description": "<p>URL-parameter: <code>id</code> of the user to be read</p>"
          }
        ]
      }
    },
    "description": "<p>This route reads the attributes of a user with provided <code>id</code> and returns <br /></p> <ul> <li>a message with the attributes of user with id <code>id</code><br /></li> <li>an userList containing all users</li> <li>a user-Object with all attributes of the read user<br/><br/></li> </ul>",
    "examples": [
      {
        "title": "Usage Example",
        "content": "http://localhost:8080/user/0",
        "type": "url"
      }
    ],
    "success": {
      "fields": {
        "Success 200": [
          {
            "group": "Success 200",
            "type": "string",
            "optional": false,
            "field": "message",
            "description": "<p>attributes of user with id <code>id</code></p>"
          },
          {
            "group": "Success 200",
            "type": "json[]",
            "optional": false,
            "field": "userList",
            "description": "<p>List of users: [{&quot;vorname&quot;:string, &quot;nachname&quot;:string, &quot;username&quot;:string, &quot;passwort&quot;:string, ...}, ...]</p>"
          },
          {
            "group": "Success 200",
            "type": "Object",
            "optional": false,
            "field": "user",
            "description": "<p>that have been read: {&quot;vorname&quot;:string, &quot;nachname&quot;:string, &quot;username&quot;:string, &quot;passwort&quot;:string, ...}</p>"
          }
        ]
      },
      "examples": [
        {
          "title": "200 (ok) Example",
          "content": "HTTP/1.1 200 ok\n{ \"message\"  : \"Selected item is Max Mustermann\",\n  \"userList\" : [ {\"username\":\"user1\", \"passwort\":\"geheim\", \"vorname\":\"Max\",   \"nachname\":\"Mustermann\", \"time\":\"23.02.2017  15:27:00\"},\n                 {\"username\":\"user2\", \"passwort\":\"geheim\", \"vorname\":\"Sabine\",\"nachname\":\"Musterfrau\", \"time\":\"23.02.2017  15:28:00\"} ],\n  \"user\"     : { {\"username\":\"user1\", \"passwort\":\"geheim\", \"vorname\":\"Max\",   \"nachname\":\"Mustermann\", \"time\":\"23.02.2017  15:27:00\"} } }",
          "type": "json"
        }
      ]
    },
    "filename": "./src/serverCS.js",
    "groupTitle": "User",
    "error": {
      "fields": {
        "Error 400": [
          {
            "group": "Error 400",
            "type": "string",
            "optional": false,
            "field": "message",
            "description": "<p>description of the error</p>"
          },
          {
            "group": "Error 400",
            "type": "json[]",
            "optional": false,
            "field": "userList",
            "description": "<p>List of users: [{&quot;vorname&quot;:string, &quot;nachname&quot;:string}, ...]</p>"
          }
        ],
        "Error 404": [
          {
            "group": "Error 404",
            "type": "string",
            "optional": false,
            "field": "message",
            "description": "<p>description of the error</p>"
          },
          {
            "group": "Error 404",
            "type": "json[]",
            "optional": false,
            "field": "userList",
            "description": "<p>List of users: [{&quot;vorname&quot;:string, &quot;nachname&quot;:string}, ...]</p>"
          }
        ],
        "Error 410": [
          {
            "group": "Error 410",
            "type": "string",
            "optional": false,
            "field": "message",
            "description": "<p>description of the error</p>"
          },
          {
            "group": "Error 410",
            "type": "object[]",
            "optional": false,
            "field": "userList",
            "description": "<p>List of users: [{&quot;vorname&quot;:string, &quot;nachname&quot;:string}, ...]</p>"
          }
        ]
      },
      "examples": [
        {
          "title": "400 (Bad Request) Parameter not provided",
          "content": "HTTP/1.1 400 Bad Request\n{\n  \"message\"  : \"vorname or nachname not provided\",\n  \"userList\" : [\n    {\"vorname\":\"Max\",   \"nachname\":\"Mustermann\"},\n  ]\n}",
          "type": "json"
        },
        {
          "title": "400 (Bad Request) wrong Parameter format",
          "content": "HTTP/1.1 400 Bad Request\n{\n  \"message\"  : \"Id 'Hans' not a number\",\n  \"userList\" : [\n    {\"vorname\":\"Max\",   \"nachname\":\"Mustermann\"},\n  ]\n}",
          "type": "json"
        },
        {
          "title": "400 (Bad Request) ID not provided",
          "content": "HTTP/1.1 400 Bad Request\n{\n  \"message\"  : \"Parameter ID not provided\",\n  \"userList\" : [\n    {\"id\":0, \"vorname\":\"Max\", \"nachname\":\"Mustermann\"},\n  ]\n}",
          "type": "json"
        },
        {
          "title": "404 (Not Found) Example",
          "content": "HTTP/1.1 404 Not Found\n{\n  \"message\"  : \"Id 42 out of index range\",\n  \"userList\" : [\n    {\"vorname\":\"Max\",   \"nachname\":\"Mustermann\"},\n    {\"vorname\":\"Sabine\",\"nachname\":\"Musterfrau\"}\n  ]\n}",
          "type": "json"
        },
        {
          "title": "410 (Gone) Example",
          "content": "HTTP/1.1 410 Gone\n{\n  \"message\"  : \"User with id 2 already deleted\",\n  \"userList\" : [\n    {\"vorname\":\"Max\",   \"nachname\":\"Mustermann\"},\n    {\"vorname\":\"Sabine\",\"nachname\":\"Musterfrau\"}\n  ]\n}",
          "type": "json"
        }
      ]
    }
  },
  {
    "type": "get",
    "url": "/user/:id",
    "title": "Read user information",
    "version": "1.0.0",
    "name": "ReadUser",
    "group": "User",
    "parameter": {
      "fields": {
        "Parameter": [
          {
            "group": "Parameter",
            "type": "number",
            "optional": false,
            "field": ":id",
            "description": "<p>URL-parameter: <code>id</code> of the user to be read</p>"
          }
        ]
      }
    },
    "description": "<p>This route reads the attributes of a user with provided <code>id</code> and returns <br /></p> <ul> <li>a message with the attributes of user with id <code>id</code><br /></li> <li>an userList containing all users</li> <li>a user-Object with all attributes of the read user<br/><br/></li> </ul>",
    "examples": [
      {
        "title": "Usage Example",
        "content": "http://localhost:8080/user/0",
        "type": "url"
      }
    ],
    "success": {
      "fields": {
        "Success 200": [
          {
            "group": "Success 200",
            "type": "string",
            "optional": false,
            "field": "message",
            "description": "<p>attributes of user with id <code>id</code></p>"
          },
          {
            "group": "Success 200",
            "type": "json[]",
            "optional": false,
            "field": "userList",
            "description": "<p>List of users: [{&quot;vorname&quot;:string, &quot;nachname&quot;:string, &quot;username&quot;:string, &quot;passwort&quot;:string, ...}, ...]</p>"
          },
          {
            "group": "Success 200",
            "type": "Object",
            "optional": false,
            "field": "user",
            "description": "<p>that have been read: {&quot;vorname&quot;:string, &quot;nachname&quot;:string, &quot;username&quot;:string, &quot;passwort&quot;:string, ...}</p>"
          }
        ]
      },
      "examples": [
        {
          "title": "200 (ok) Example",
          "content": "HTTP/1.1 200 ok\n{ \"message\"  : \"Selected item is Max Mustermann\",\n  \"userList\" : [ {\"username\":\"user1\", \"passwort\":\"geheim\", \"vorname\":\"Max\",   \"nachname\":\"Mustermann\", \"time\":\"23.02.2017  15:27:00\"},\n                 {\"username\":\"user2\", \"passwort\":\"geheim\", \"vorname\":\"Sabine\",\"nachname\":\"Musterfrau\", \"time\":\"23.02.2017  15:28:00\"} ],\n  \"user\"     : { {\"username\":\"user1\", \"passwort\":\"geheim\", \"vorname\":\"Max\",   \"nachname\":\"Mustermann\", \"time\":\"23.02.2017  15:27:00\"} } }",
          "type": "json"
        }
      ]
    },
    "filename": "./src/serverCS.ts",
    "groupTitle": "User",
    "error": {
      "fields": {
        "Error 400": [
          {
            "group": "Error 400",
            "type": "string",
            "optional": false,
            "field": "message",
            "description": "<p>description of the error</p>"
          },
          {
            "group": "Error 400",
            "type": "json[]",
            "optional": false,
            "field": "userList",
            "description": "<p>List of users: [{&quot;vorname&quot;:string, &quot;nachname&quot;:string}, ...]</p>"
          }
        ],
        "Error 404": [
          {
            "group": "Error 404",
            "type": "string",
            "optional": false,
            "field": "message",
            "description": "<p>description of the error</p>"
          },
          {
            "group": "Error 404",
            "type": "json[]",
            "optional": false,
            "field": "userList",
            "description": "<p>List of users: [{&quot;vorname&quot;:string, &quot;nachname&quot;:string}, ...]</p>"
          }
        ],
        "Error 410": [
          {
            "group": "Error 410",
            "type": "string",
            "optional": false,
            "field": "message",
            "description": "<p>description of the error</p>"
          },
          {
            "group": "Error 410",
            "type": "object[]",
            "optional": false,
            "field": "userList",
            "description": "<p>List of users: [{&quot;vorname&quot;:string, &quot;nachname&quot;:string}, ...]</p>"
          }
        ]
      },
      "examples": [
        {
          "title": "400 (Bad Request) Parameter not provided",
          "content": "HTTP/1.1 400 Bad Request\n{\n  \"message\"  : \"vorname or nachname not provided\",\n  \"userList\" : [\n    {\"vorname\":\"Max\",   \"nachname\":\"Mustermann\"},\n  ]\n}",
          "type": "json"
        },
        {
          "title": "400 (Bad Request) wrong Parameter format",
          "content": "HTTP/1.1 400 Bad Request\n{\n  \"message\"  : \"Id 'Hans' not a number\",\n  \"userList\" : [\n    {\"vorname\":\"Max\",   \"nachname\":\"Mustermann\"},\n  ]\n}",
          "type": "json"
        },
        {
          "title": "400 (Bad Request) ID not provided",
          "content": "HTTP/1.1 400 Bad Request\n{\n  \"message\"  : \"Parameter ID not provided\",\n  \"userList\" : [\n    {\"id\":0, \"vorname\":\"Max\", \"nachname\":\"Mustermann\"},\n  ]\n}",
          "type": "json"
        },
        {
          "title": "404 (Not Found) Example",
          "content": "HTTP/1.1 404 Not Found\n{\n  \"message\"  : \"Id 42 out of index range\",\n  \"userList\" : [\n    {\"vorname\":\"Max\",   \"nachname\":\"Mustermann\"},\n    {\"vorname\":\"Sabine\",\"nachname\":\"Musterfrau\"}\n  ]\n}",
          "type": "json"
        },
        {
          "title": "410 (Gone) Example",
          "content": "HTTP/1.1 410 Gone\n{\n  \"message\"  : \"User with id 2 already deleted\",\n  \"userList\" : [\n    {\"vorname\":\"Max\",   \"nachname\":\"Mustermann\"},\n    {\"vorname\":\"Sabine\",\"nachname\":\"Musterfrau\"}\n  ]\n}",
          "type": "json"
        }
      ]
    }
  },
  {
    "type": "put",
    "url": "/user/:id",
    "title": "Update user",
    "version": "1.0.0",
    "name": "UpdateUser",
    "group": "User",
    "description": "<p>This route changes attributes of a user with provided <code>id</code><br /> Only the provided (optional) parameters are hanged. &quot;Update User&quot; returns <br /></p> <ul> <li>a message with the attributes of the updated user</li> <li>a userList containing all users</li> <li>a user-Object with all attributes of the updated user<br/><br/></li> </ul>",
    "examples": [
      {
        "title": "Usage Example",
        "content": "http://localhost:8080/user/1",
        "type": "url"
      }
    ],
    "parameter": {
      "fields": {
        "Parameter": [
          {
            "group": "Parameter",
            "type": "number",
            "optional": false,
            "field": ":id",
            "description": "<p>URL-parameter: <code>id</code> of the user to be updated</p>"
          },
          {
            "group": "Parameter",
            "type": "string",
            "optional": true,
            "field": "username",
            "description": "<p>username of the users</p>"
          },
          {
            "group": "Parameter",
            "type": "string",
            "optional": true,
            "field": "passwort",
            "description": "<p>password of the users</p>"
          },
          {
            "group": "Parameter",
            "type": "string",
            "optional": true,
            "field": "vorname",
            "description": "<p>surname of the users</p>"
          },
          {
            "group": "Parameter",
            "type": "string",
            "optional": true,
            "field": "nachname",
            "description": "<p>lastname of the user</p>"
          }
        ]
      },
      "examples": [
        {
          "title": "Parameters Example",
          "content": "vorname=Max&nachname=Mustermann",
          "type": "urlencoded"
        }
      ]
    },
    "success": {
      "fields": {
        "Success 200": [
          {
            "group": "Success 200",
            "type": "string",
            "optional": false,
            "field": "message",
            "description": "<p>attributes of newly created user</p>"
          },
          {
            "group": "Success 200",
            "type": "json[]",
            "optional": false,
            "field": "userList",
            "description": "<p>List of users: [{&quot;username&quot;:string, &quot;passwort&quot;:string, &quot;vorname&quot;:string, &quot;nachname&quot;:string, ...}, ...]</p>"
          },
          {
            "group": "Success 200",
            "type": "Object",
            "optional": false,
            "field": "user",
            "description": "<p>the user-data after update: {&quot;&quot;username&quot;:string, &quot;passwort&quot;:string, vorname&quot;:string, &quot;nachname&quot;:string, ...}</p>"
          }
        ]
      },
      "examples": [
        {
          "title": "201 (Created) Example",
          "content": "HTTP/1.1 200 Ok\n{ \"message\"  : \"Updated item is Sabine Mustermann\",\n  \"userList\" : [ {\"username\":\"user1\", \"passwort\":\"geheim\", \"vorname\":\"Max\",   \"nachname\":\"Mustermann\", \"time\":\"23.02.2017  15:27:00\"},\n                 {\"username\":\"user2\", \"passwort\":\"geheim\", \"vorname\":\"Sabine\",\"nachname\":\"Mustermann\", \"time\":\"23.02.2017  15:28:00\"} ],\n  \"user\"     : { {\"username\":\"user2\", \"passwort\":\"geheim\",\"vorname\":\"Sabine\",\"nachname\":\"Mustermann\", \"time\":\"23.02.2017  15:28:00\"} } }",
          "type": "json"
        }
      ]
    },
    "filename": "./src/serverCS.js",
    "groupTitle": "User",
    "error": {
      "fields": {
        "Error 400": [
          {
            "group": "Error 400",
            "type": "string",
            "optional": false,
            "field": "message",
            "description": "<p>description of the error</p>"
          },
          {
            "group": "Error 400",
            "type": "json[]",
            "optional": false,
            "field": "userList",
            "description": "<p>List of users: [{&quot;vorname&quot;:string, &quot;nachname&quot;:string}, ...]</p>"
          }
        ],
        "Error 404": [
          {
            "group": "Error 404",
            "type": "string",
            "optional": false,
            "field": "message",
            "description": "<p>description of the error</p>"
          },
          {
            "group": "Error 404",
            "type": "json[]",
            "optional": false,
            "field": "userList",
            "description": "<p>List of users: [{&quot;vorname&quot;:string, &quot;nachname&quot;:string}, ...]</p>"
          }
        ],
        "Error 410": [
          {
            "group": "Error 410",
            "type": "string",
            "optional": false,
            "field": "message",
            "description": "<p>description of the error</p>"
          },
          {
            "group": "Error 410",
            "type": "object[]",
            "optional": false,
            "field": "userList",
            "description": "<p>List of users: [{&quot;vorname&quot;:string, &quot;nachname&quot;:string}, ...]</p>"
          }
        ]
      },
      "examples": [
        {
          "title": "400 (Bad Request) Parameter not provided",
          "content": "HTTP/1.1 400 Bad Request\n{\n  \"message\"  : \"vorname or nachname not provided\",\n  \"userList\" : [\n    {\"vorname\":\"Max\",   \"nachname\":\"Mustermann\"},\n  ]\n}",
          "type": "json"
        },
        {
          "title": "400 (Bad Request) wrong Parameter format",
          "content": "HTTP/1.1 400 Bad Request\n{\n  \"message\"  : \"Id 'Hans' not a number\",\n  \"userList\" : [\n    {\"vorname\":\"Max\",   \"nachname\":\"Mustermann\"},\n  ]\n}",
          "type": "json"
        },
        {
          "title": "400 (Bad Request) ID not provided",
          "content": "HTTP/1.1 400 Bad Request\n{\n  \"message\"  : \"Parameter ID not provided\",\n  \"userList\" : [\n    {\"id\":0, \"vorname\":\"Max\", \"nachname\":\"Mustermann\"},\n  ]\n}",
          "type": "json"
        },
        {
          "title": "404 (Not Found) Example",
          "content": "HTTP/1.1 404 Not Found\n{\n  \"message\"  : \"Id 42 out of index range\",\n  \"userList\" : [\n    {\"vorname\":\"Max\",   \"nachname\":\"Mustermann\"},\n    {\"vorname\":\"Sabine\",\"nachname\":\"Musterfrau\"}\n  ]\n}",
          "type": "json"
        },
        {
          "title": "410 (Gone) Example",
          "content": "HTTP/1.1 410 Gone\n{\n  \"message\"  : \"User with id 2 already deleted\",\n  \"userList\" : [\n    {\"vorname\":\"Max\",   \"nachname\":\"Mustermann\"},\n    {\"vorname\":\"Sabine\",\"nachname\":\"Musterfrau\"}\n  ]\n}",
          "type": "json"
        }
      ]
    }
  },
  {
    "type": "put",
    "url": "/user/:id",
    "title": "Update user",
    "version": "1.0.0",
    "name": "UpdateUser",
    "group": "User",
    "description": "<p>This route changes attributes of a user with provided <code>id</code><br /> Only the provided (optional) parameters are hanged. &quot;Update User&quot; returns <br /></p> <ul> <li>a message with the attributes of the updated user</li> <li>a userList containing all users</li> <li>a user-Object with all attributes of the updated user<br/><br/></li> </ul>",
    "examples": [
      {
        "title": "Usage Example",
        "content": "http://localhost:8080/user/1",
        "type": "url"
      }
    ],
    "parameter": {
      "fields": {
        "Parameter": [
          {
            "group": "Parameter",
            "type": "number",
            "optional": false,
            "field": ":id",
            "description": "<p>URL-parameter: <code>id</code> of the user to be updated</p>"
          },
          {
            "group": "Parameter",
            "type": "string",
            "optional": true,
            "field": "username",
            "description": "<p>username of the users</p>"
          },
          {
            "group": "Parameter",
            "type": "string",
            "optional": true,
            "field": "passwort",
            "description": "<p>password of the users</p>"
          },
          {
            "group": "Parameter",
            "type": "string",
            "optional": true,
            "field": "vorname",
            "description": "<p>surname of the users</p>"
          },
          {
            "group": "Parameter",
            "type": "string",
            "optional": true,
            "field": "nachname",
            "description": "<p>lastname of the user</p>"
          }
        ]
      },
      "examples": [
        {
          "title": "Parameters Example",
          "content": "vorname=Max&nachname=Mustermann",
          "type": "urlencoded"
        }
      ]
    },
    "success": {
      "fields": {
        "Success 200": [
          {
            "group": "Success 200",
            "type": "string",
            "optional": false,
            "field": "message",
            "description": "<p>attributes of newly created user</p>"
          },
          {
            "group": "Success 200",
            "type": "json[]",
            "optional": false,
            "field": "userList",
            "description": "<p>List of users: [{&quot;username&quot;:string, &quot;passwort&quot;:string, &quot;vorname&quot;:string, &quot;nachname&quot;:string, ...}, ...]</p>"
          },
          {
            "group": "Success 200",
            "type": "Object",
            "optional": false,
            "field": "user",
            "description": "<p>the user-data after update: {&quot;&quot;username&quot;:string, &quot;passwort&quot;:string, vorname&quot;:string, &quot;nachname&quot;:string, ...}</p>"
          }
        ]
      },
      "examples": [
        {
          "title": "201 (Created) Example",
          "content": "HTTP/1.1 200 Ok\n{ \"message\"  : \"Updated item is Sabine Mustermann\",\n  \"userList\" : [ {\"username\":\"user1\", \"passwort\":\"geheim\", \"vorname\":\"Max\",   \"nachname\":\"Mustermann\", \"time\":\"23.02.2017  15:27:00\"},\n                 {\"username\":\"user2\", \"passwort\":\"geheim\", \"vorname\":\"Sabine\",\"nachname\":\"Mustermann\", \"time\":\"23.02.2017  15:28:00\"} ],\n  \"user\"     : { {\"username\":\"user2\", \"passwort\":\"geheim\",\"vorname\":\"Sabine\",\"nachname\":\"Mustermann\", \"time\":\"23.02.2017  15:28:00\"} } }",
          "type": "json"
        }
      ]
    },
    "filename": "./src/serverCS.ts",
    "groupTitle": "User",
    "error": {
      "fields": {
        "Error 400": [
          {
            "group": "Error 400",
            "type": "string",
            "optional": false,
            "field": "message",
            "description": "<p>description of the error</p>"
          },
          {
            "group": "Error 400",
            "type": "json[]",
            "optional": false,
            "field": "userList",
            "description": "<p>List of users: [{&quot;vorname&quot;:string, &quot;nachname&quot;:string}, ...]</p>"
          }
        ],
        "Error 404": [
          {
            "group": "Error 404",
            "type": "string",
            "optional": false,
            "field": "message",
            "description": "<p>description of the error</p>"
          },
          {
            "group": "Error 404",
            "type": "json[]",
            "optional": false,
            "field": "userList",
            "description": "<p>List of users: [{&quot;vorname&quot;:string, &quot;nachname&quot;:string}, ...]</p>"
          }
        ],
        "Error 410": [
          {
            "group": "Error 410",
            "type": "string",
            "optional": false,
            "field": "message",
            "description": "<p>description of the error</p>"
          },
          {
            "group": "Error 410",
            "type": "object[]",
            "optional": false,
            "field": "userList",
            "description": "<p>List of users: [{&quot;vorname&quot;:string, &quot;nachname&quot;:string}, ...]</p>"
          }
        ]
      },
      "examples": [
        {
          "title": "400 (Bad Request) Parameter not provided",
          "content": "HTTP/1.1 400 Bad Request\n{\n  \"message\"  : \"vorname or nachname not provided\",\n  \"userList\" : [\n    {\"vorname\":\"Max\",   \"nachname\":\"Mustermann\"},\n  ]\n}",
          "type": "json"
        },
        {
          "title": "400 (Bad Request) wrong Parameter format",
          "content": "HTTP/1.1 400 Bad Request\n{\n  \"message\"  : \"Id 'Hans' not a number\",\n  \"userList\" : [\n    {\"vorname\":\"Max\",   \"nachname\":\"Mustermann\"},\n  ]\n}",
          "type": "json"
        },
        {
          "title": "400 (Bad Request) ID not provided",
          "content": "HTTP/1.1 400 Bad Request\n{\n  \"message\"  : \"Parameter ID not provided\",\n  \"userList\" : [\n    {\"id\":0, \"vorname\":\"Max\", \"nachname\":\"Mustermann\"},\n  ]\n}",
          "type": "json"
        },
        {
          "title": "404 (Not Found) Example",
          "content": "HTTP/1.1 404 Not Found\n{\n  \"message\"  : \"Id 42 out of index range\",\n  \"userList\" : [\n    {\"vorname\":\"Max\",   \"nachname\":\"Mustermann\"},\n    {\"vorname\":\"Sabine\",\"nachname\":\"Musterfrau\"}\n  ]\n}",
          "type": "json"
        },
        {
          "title": "410 (Gone) Example",
          "content": "HTTP/1.1 410 Gone\n{\n  \"message\"  : \"User with id 2 already deleted\",\n  \"userList\" : [\n    {\"vorname\":\"Max\",   \"nachname\":\"Mustermann\"},\n    {\"vorname\":\"Sabine\",\"nachname\":\"Musterfrau\"}\n  ]\n}",
          "type": "json"
        }
      ]
    }
  },
  {
    "type": "all",
    "url": "/user",
    "title": "corrupted: ID missing",
    "version": "1.0.0",
    "name": "WrongAPIcall",
    "group": "User",
    "description": "<p>This routes checks for API-call with no ID provided</p>",
    "examples": [
      {
        "title": "Usage Example",
        "content": "http://localhost:8080/user",
        "type": "url"
      }
    ],
    "filename": "./src/serverCS.js",
    "groupTitle": "User",
    "error": {
      "fields": {
        "Error 400": [
          {
            "group": "Error 400",
            "type": "string",
            "optional": false,
            "field": "message",
            "description": "<p>description of the error</p>"
          },
          {
            "group": "Error 400",
            "type": "json[]",
            "optional": false,
            "field": "userList",
            "description": "<p>List of users: [{&quot;vorname&quot;:string, &quot;nachname&quot;:string}, ...]</p>"
          }
        ]
      },
      "examples": [
        {
          "title": "400 (Bad Request) Parameter not provided",
          "content": "HTTP/1.1 400 Bad Request\n{\n  \"message\"  : \"vorname or nachname not provided\",\n  \"userList\" : [\n    {\"vorname\":\"Max\",   \"nachname\":\"Mustermann\"},\n  ]\n}",
          "type": "json"
        },
        {
          "title": "400 (Bad Request) wrong Parameter format",
          "content": "HTTP/1.1 400 Bad Request\n{\n  \"message\"  : \"Id 'Hans' not a number\",\n  \"userList\" : [\n    {\"vorname\":\"Max\",   \"nachname\":\"Mustermann\"},\n  ]\n}",
          "type": "json"
        },
        {
          "title": "400 (Bad Request) ID not provided",
          "content": "HTTP/1.1 400 Bad Request\n{\n  \"message\"  : \"Parameter ID not provided\",\n  \"userList\" : [\n    {\"id\":0, \"vorname\":\"Max\", \"nachname\":\"Mustermann\"},\n  ]\n}",
          "type": "json"
        }
      ]
    }
  },
  {
    "type": "all",
    "url": "/user",
    "title": "corrupted: ID missing",
    "version": "1.0.0",
    "name": "WrongAPIcall",
    "group": "User",
    "description": "<p>This routes checks for API-call with no ID provided</p>",
    "examples": [
      {
        "title": "Usage Example",
        "content": "http://localhost:8080/user",
        "type": "url"
      }
    ],
    "filename": "./src/serverCS.ts",
    "groupTitle": "User",
    "error": {
      "fields": {
        "Error 400": [
          {
            "group": "Error 400",
            "type": "string",
            "optional": false,
            "field": "message",
            "description": "<p>description of the error</p>"
          },
          {
            "group": "Error 400",
            "type": "json[]",
            "optional": false,
            "field": "userList",
            "description": "<p>List of users: [{&quot;vorname&quot;:string, &quot;nachname&quot;:string}, ...]</p>"
          }
        ]
      },
      "examples": [
        {
          "title": "400 (Bad Request) Parameter not provided",
          "content": "HTTP/1.1 400 Bad Request\n{\n  \"message\"  : \"vorname or nachname not provided\",\n  \"userList\" : [\n    {\"vorname\":\"Max\",   \"nachname\":\"Mustermann\"},\n  ]\n}",
          "type": "json"
        },
        {
          "title": "400 (Bad Request) wrong Parameter format",
          "content": "HTTP/1.1 400 Bad Request\n{\n  \"message\"  : \"Id 'Hans' not a number\",\n  \"userList\" : [\n    {\"vorname\":\"Max\",   \"nachname\":\"Mustermann\"},\n  ]\n}",
          "type": "json"
        },
        {
          "title": "400 (Bad Request) ID not provided",
          "content": "HTTP/1.1 400 Bad Request\n{\n  \"message\"  : \"Parameter ID not provided\",\n  \"userList\" : [\n    {\"id\":0, \"vorname\":\"Max\", \"nachname\":\"Mustermann\"},\n  ]\n}",
          "type": "json"
        }
      ]
    }
  },
  {
    "type": "delete",
    "url": "/users",
    "title": "Delete list of users",
    "version": "1.0.0",
    "name": "DeleteUsers",
    "group": "Users",
    "description": "<p>This route deletes the list of users and return <br /></p> <ul> <li>a message with the numbers of users in list that have been deleted</li> <li>a userList containing all users - possibly empty<br/><br/></li> </ul>",
    "examples": [
      {
        "title": "Usage Example",
        "content": "http://localhost:8080/users",
        "type": "url"
      }
    ],
    "success": {
      "fields": {
        "Success 200": [
          {
            "group": "Success 200",
            "type": "string",
            "optional": false,
            "field": "message",
            "description": "<p>numbers of users in list that have been deleted</p>"
          },
          {
            "group": "Success 200",
            "type": "json[]",
            "optional": false,
            "field": "userList",
            "description": "<p>empty list of users: []</p>"
          }
        ]
      },
      "examples": [
        {
          "title": "200 (Ok) Example",
          "content": "HTTP/1.1 200 Ok\n{ \"message\"  : \"2 users have been deleted\",\n  \"userList\" : []                            }",
          "type": "json"
        }
      ]
    },
    "filename": "./src/serverCS.ts",
    "groupTitle": "Users"
  },
  {
    "type": "delete",
    "url": "/users",
    "title": "Delete list of users",
    "version": "1.0.0",
    "name": "DeleteUsers",
    "group": "Users",
    "description": "<p>This route deletes the list of users and return <br /></p> <ul> <li>a message with the numbers of users in list that have been deleted</li> <li>a userList containing all users - possibly empty<br/><br/></li> </ul>",
    "examples": [
      {
        "title": "Usage Example",
        "content": "http://localhost:8080/users",
        "type": "url"
      }
    ],
    "success": {
      "fields": {
        "Success 200": [
          {
            "group": "Success 200",
            "type": "string",
            "optional": false,
            "field": "message",
            "description": "<p>numbers of users in list that have been deleted</p>"
          },
          {
            "group": "Success 200",
            "type": "json[]",
            "optional": false,
            "field": "userList",
            "description": "<p>empty list of users: []</p>"
          }
        ]
      },
      "examples": [
        {
          "title": "200 (Ok) Example",
          "content": "HTTP/1.1 200 Ok\n{ \"message\"  : \"2 users have been deleted\",\n  \"userList\" : []                            }",
          "type": "json"
        }
      ]
    },
    "filename": "./src/serverCS.js",
    "groupTitle": "Users"
  },
  {
    "type": "get",
    "url": "/users",
    "title": "Read list of users",
    "version": "1.0.0",
    "name": "readUsers",
    "group": "Users",
    "description": "<p>This route returns <br /></p> <ul> <li>a message with the numbers of users in list</li> <li>a userList containing all users - possibly empty<br/><br/></li> </ul>",
    "examples": [
      {
        "title": "Usage Example",
        "content": "http://localhost:8080/users",
        "type": "url"
      }
    ],
    "success": {
      "fields": {
        "Success 200": [
          {
            "group": "Success 200",
            "type": "string",
            "optional": false,
            "field": "message",
            "description": "<p>numbers of users in list</p>"
          },
          {
            "group": "Success 200",
            "type": "json[]",
            "optional": false,
            "field": "userList",
            "description": "<p>List of users: [{&quot;vorname&quot;:string, &quot;nachname&quot;:string}, ...]</p>"
          }
        ]
      },
      "examples": [
        {
          "title": "200 (Ok) Example",
          "content": "HTTP/1.1 200 Ok\n{ \"message\"  : \"There are 2 users in list\",\n  \"userList\" : [ {\"username\":\"user1\", \"passwort\":\"geheim\", \"vorname\":\"Max\",   \"nachname\":\"Mustermann\"},\n                 {\"username\":\"user2\", \"passwort\":\"geheim\", \"vorname\":\"Sabine\",\"nachname\":\"Musterfrau\"} ] }",
          "type": "json"
        }
      ]
    },
    "filename": "./src/serverCS.js",
    "groupTitle": "Users"
  },
  {
    "type": "get",
    "url": "/users",
    "title": "Read list of users",
    "version": "1.0.0",
    "name": "readUsers",
    "group": "Users",
    "description": "<p>This route returns <br /></p> <ul> <li>a message with the numbers of users in list</li> <li>a userList containing all users - possibly empty<br/><br/></li> </ul>",
    "examples": [
      {
        "title": "Usage Example",
        "content": "http://localhost:8080/users",
        "type": "url"
      }
    ],
    "success": {
      "fields": {
        "Success 200": [
          {
            "group": "Success 200",
            "type": "string",
            "optional": false,
            "field": "message",
            "description": "<p>numbers of users in list</p>"
          },
          {
            "group": "Success 200",
            "type": "json[]",
            "optional": false,
            "field": "userList",
            "description": "<p>List of users: [{&quot;vorname&quot;:string, &quot;nachname&quot;:string}, ...]</p>"
          }
        ]
      },
      "examples": [
        {
          "title": "200 (Ok) Example",
          "content": "HTTP/1.1 200 Ok\n{ \"message\"  : \"There are 2 users in list\",\n  \"userList\" : [ {\"username\":\"user1\", \"passwort\":\"geheim\", \"vorname\":\"Max\",   \"nachname\":\"Mustermann\"},\n                 {\"username\":\"user2\", \"passwort\":\"geheim\", \"vorname\":\"Sabine\",\"nachname\":\"Musterfrau\"} ] }",
          "type": "json"
        }
      ]
    },
    "filename": "./src/serverCS.ts",
    "groupTitle": "Users"
  }
]
